material Particles/Fireball.000
{
	technique
	{
		pass
		{
			lighting off
			depth_write off
			scene_blend add

			texture_unit
			{
				texture Final_boss_propeller_charging.png
			}
		}
	}
}
