// Final_boss_2 genrated by blender2ogre 0.6.0

material Final_boss_2 
{
    receive_shadows on 

    technique
    {
        pass Final_boss_2
        {
            ambient 0.800000011920929 0.800000011920929 0.800000011920929 1.0
            diffuse 0.6400000190734865 0.6400000190734865 0.6400000190734865 1.0
            specular 0.5 0.5 0.5 1.0 12.5
            emissive 0.0 0.0 0.0 1.0

            alpha_to_coverage off
            colour_write on
            cull_hardware clockwise
            depth_check on
            depth_func less_equal
            depth_write on
            illumination_stage 
            light_clip_planes off
            light_scissor off
            lighting on
            normalise_normals off
            polygon_mode solid
            scene_blend one zero
            scene_blend_op add
            shading gouraud
            transparent_sorting on

            texture_unit 
            {
                texture boss2.png
                tex_address_mode wrap
                scale 1.0 1.0
                tex_coord_set 0
                colour_op modulate
            }
        }
    }
}

material Material_Enemy_Damaged
{
    receive_shadows on 

    technique
    {
        pass Material
        {
            ambient 1.0 0.003612921107560396 0.0 1.0
            diffuse 0.800000011920929 0.002890336929117693 0.0 1.0
            specular 0.5 0.5 0.5 1.0 12.5
            emissive 0.0 0.0 0.0 1.0

            alpha_to_coverage off
            colour_write on
            cull_hardware clockwise
            depth_check on
            depth_func less_equal
            depth_write on
            illumination_stage 
            light_clip_planes off
            light_scissor off
            lighting on
            normalise_normals off
            polygon_mode solid
            scene_blend one zero
            scene_blend_op add
            shading gouraud
            transparent_sorting on

        }
    }
}
