particle_system Boss_2_rising
{
	material Particles/Boss_2_rising
	particle_width 1
	particle_height 1
	quota 100
	cull_each false
	sorted false
	local_space false
	iteration_interval 0.0
	nonvisible_update_timeout 0.0
	billboard_type point
	billboard_origin center
	billboard_rotation_type texcoord
	point_rendering false
	accurate_facing false

	emitter Point
	{
		position 0.0 0.0 0.0
		direction 0.0 1.0 0.0
		angle 9.47
		emission_rate 14.74
		velocity_min 0
		velocity_max 0
		time_to_live_min 1
		time_to_live_max 5
		duration_min 11
		duration_max 13
		repeat_delay_min 0
		repeat_delay_max 0
		colour_range_start 1 1 1 1
		colour_range_end 1 1 1 1
	}

	affector LinearForce
	{
		force_vector 0.0 -1.0 0.3
		force_application add
	}

	affector ColourInterpolator
	{
		time0 0
		colour0 0.870588 1 1 1
		time1 0.2
		colour1 0 0.666667 1 1
		time2 0.4
		colour2 0.494118 0.290196 0.329412 1
		time3 0.6
		colour3 0.333333 0.666667 1 1
		time4 0.8
		colour4 0.709804 1 1 1
		time5 1
		colour5 0 0 0 1
	}

	affector Scaler
	{
		rate -0.1
	}
}
